two_cycle_pipeline/gtkwave.vcd
$version Generated by VerilatedVcd $end
$date Tue Oct  3 09:21:38 2023
 $end
$timescale   1ps $end

 $scope module TOP $end
  $var wire  1 /! clock $end
  $var wire  1 0! reset $end
  $scope module testbench $end
   $var wire 32 1! MEM_ADDR_WIDTH [31:0] $end
   $var wire  1 /! clock $end
   $var wire 32 * cycles [31:0] $end
   $var wire 32 z dmem_addr [31:0] $end
   $var wire 32 & dmem_rdata [31:0] $end
   $var wire  1 y dmem_valid $end
   $var wire 32 | dmem_wdata [31:0] $end
   $var wire  4 { dmem_wstrb [3:0] $end
   $var wire 32 ) i [31:0] $end
   $var wire 32 x imem_addr [31:0] $end
   $var wire 32 % imem_data [31:0] $end
   $var wire 32 ' out [31:0] $end
   $var wire  1 ( out_valid $end
   $var wire  1 0! reset $end
   $var wire  1 # trap $end
   $var wire  1 } wr_in_mem_range $end
   $var wire  1 ~ wr_in_output $end
   $var wire 32 $ x10 [31:0] $end
   $scope module dut $end
    $var wire 32 3! NUMREGS [31:0] $end
    $var wire  7 A! OPCODE_AMO [6:0] $end
    $var wire  7 H! OPCODE_AUIPC [6:0] $end
    $var wire  7 7! OPCODE_BRANCH [6:0] $end
    $var wire  7 <! OPCODE_CUSTOM_0 [6:0] $end
    $var wire  7 =! OPCODE_CUSTOM_1 [6:0] $end
    $var wire  7 N! OPCODE_CUSTOM_2 [6:0] $end
    $var wire  7 O! OPCODE_CUSTOM_3 [6:0] $end
    $var wire  7 C! OPCODE_JAL [6:0] $end
    $var wire  7 ;! OPCODE_JALR [6:0] $end
    $var wire  7 4! OPCODE_LOAD [6:0] $end
    $var wire  7 8! OPCODE_LOAD_FP [6:0] $end
    $var wire  7 I! OPCODE_LUI [6:0] $end
    $var wire  7 6! OPCODE_MADD [6:0] $end
    $var wire  7 @! OPCODE_MISC_MEM [6:0] $end
    $var wire  7 :! OPCODE_MSUB [6:0] $end
    $var wire  7 B! OPCODE_NMADD [6:0] $end
    $var wire  7 >! OPCODE_NMSUB [6:0] $end
    $var wire  7 E! OPCODE_OP [6:0] $end
    $var wire  7 M! OPCODE_OP_32 [6:0] $end
    $var wire  7 F! OPCODE_OP_FP [6:0] $end
    $var wire  7 D! OPCODE_OP_IMM [6:0] $end
    $var wire  7 L! OPCODE_OP_IMM_32 [6:0] $end
    $var wire  7 ?! OPCODE_RESERVED_0 [6:0] $end
    $var wire  7 J! OPCODE_RESERVED_1 [6:0] $end
    $var wire  7 K! OPCODE_RESERVED_2 [6:0] $end
    $var wire  7 5! OPCODE_STORE [6:0] $end
    $var wire  7 9! OPCODE_STORE_FP [6:0] $end
    $var wire  7 G! OPCODE_SYSTEM [6:0] $end
    $var wire 32 2! RESET_ADDR [31:0] $end
    $var wire  1 s block_EX $end
    $var wire  1 t block_ID $end
    $var wire  1 /! clock $end
    $var wire 32 z dmem_addr [31:0] $end
    $var wire 32 & dmem_rdata [31:0] $end
    $var wire  1 y dmem_valid $end
    $var wire 32 | dmem_wdata [31:0] $end
    $var wire  4 { dmem_wstrb [3:0] $end
    $var wire  1 -! illinsn $end
    $var wire 32 x imem_addr [31:0] $end
    $var wire 32 Q imem_addr_q [31:0] $end
    $var wire 32 % imem_data [31:0] $end
    $var wire 13 d imm_b [12:0] $end
    $var wire 32 l imm_b_sext [31:0] $end
    $var wire 32 h imm_b_sext_pipeline [31:0] $end
    $var wire 12 b imm_i [11:0] $end
    $var wire 32 j imm_i_sext [31:0] $end
    $var wire 32 f imm_i_sext_pipeline [31:0] $end
    $var wire 21 e imm_j [20:0] $end
    $var wire 32 m imm_j_sext [31:0] $end
    $var wire 32 i imm_j_sext_pipeline [31:0] $end
    $var wire 12 c imm_s [11:0] $end
    $var wire 32 k imm_s_sext [31:0] $end
    $var wire 32 g imm_s_sext_pipeline [31:0] $end
    $var wire 32 % insn [31:0] $end
    $var wire  3 Y insn_funct3 [2:0] $end
    $var wire  3 _ insn_funct3_pipeline [2:0] $end
    $var wire  7 V insn_funct7 [6:0] $end
    $var wire  7 \ insn_funct7_pipeline [6:0] $end
    $var wire  7 [ insn_opcode [6:0] $end
    $var wire  7 a insn_opcode_pipeline [6:0] $end
    $var wire 32 P insn_pipeline_EX [31:0] $end
    $var wire  5 Z insn_rd [4:0] $end
    $var wire  5 ` insn_rd_pipeline [4:0] $end
    $var wire  5 X insn_rs1 [4:0] $end
    $var wire  5 ^ insn_rs1_pipeline [4:0] $end
    $var wire  5 W insn_rs2 [4:0] $end
    $var wire  5 ] insn_rs2_pipeline [4:0] $end
    $var wire  1 p j_b_check $end
    $var wire 32 &! mem_rd_addr [31:0] $end
    $var wire  1 %! mem_rd_enable $end
    $var wire  1 + mem_rd_enable_q $end
    $var wire  5 (! mem_rd_func [4:0] $end
    $var wire  5 - mem_rd_func_q [4:0] $end
    $var wire  5 '! mem_rd_reg [4:0] $end
    $var wire  5 , mem_rd_reg_q [4:0] $end
    $var wire 32 w mem_rdata [31:0] $end
    $var wire 32 "! mem_wr_addr [31:0] $end
    $var wire 32 #! mem_wr_data [31:0] $end
    $var wire  1 !! mem_wr_enable $end
    $var wire  4 $! mem_wr_strb [3:0] $end
    $var wire 32 n next_rd [31:0] $end
    $var wire  1 ,! next_wr $end
    $var wire 32 )! npc [31:0] $end
    $var wire 32 N pc [31:0] $end
    $var wire 32 O ppc [31:0] $end
    $var wire  1 *! read_en_rs1 $end
    $var wire  1 +! read_en_rs2 $end
    $var wire 32 . regfile(0) [31:0] $end
    $var wire 32 / regfile(1) [31:0] $end
    $var wire 32 8 regfile(10) [31:0] $end
    $var wire 32 9 regfile(11) [31:0] $end
    $var wire 32 : regfile(12) [31:0] $end
    $var wire 32 ; regfile(13) [31:0] $end
    $var wire 32 < regfile(14) [31:0] $end
    $var wire 32 = regfile(15) [31:0] $end
    $var wire 32 > regfile(16) [31:0] $end
    $var wire 32 ? regfile(17) [31:0] $end
    $var wire 32 @ regfile(18) [31:0] $end
    $var wire 32 A regfile(19) [31:0] $end
    $var wire 32 0 regfile(2) [31:0] $end
    $var wire 32 B regfile(20) [31:0] $end
    $var wire 32 C regfile(21) [31:0] $end
    $var wire 32 D regfile(22) [31:0] $end
    $var wire 32 E regfile(23) [31:0] $end
    $var wire 32 F regfile(24) [31:0] $end
    $var wire 32 G regfile(25) [31:0] $end
    $var wire 32 H regfile(26) [31:0] $end
    $var wire 32 I regfile(27) [31:0] $end
    $var wire 32 J regfile(28) [31:0] $end
    $var wire 32 K regfile(29) [31:0] $end
    $var wire 32 1 regfile(3) [31:0] $end
    $var wire 32 L regfile(30) [31:0] $end
    $var wire 32 M regfile(31) [31:0] $end
    $var wire 32 2 regfile(4) [31:0] $end
    $var wire 32 3 regfile(5) [31:0] $end
    $var wire 32 4 regfile(6) [31:0] $end
    $var wire 32 5 regfile(7) [31:0] $end
    $var wire 32 6 regfile(8) [31:0] $end
    $var wire 32 7 regfile(9) [31:0] $end
    $var wire  1 0! reset $end
    $var wire  1 v reset_q $end
    $var wire  1 q rs1_fw $end
    $var wire 32 T rs1_value [31:0] $end
    $var wire 32 R rs1_value_pipeline [31:0] $end
    $var wire  1 r rs2_fw $end
    $var wire 32 U rs2_value [31:0] $end
    $var wire 32 S rs2_value_pipeline [31:0] $end
    $var wire  1 u stall_cond_EX $end
    $var wire  1 .! stall_cond_IF $end
    $var wire  1 # trap $end
    $var wire  1 # trapped $end
    $var wire  1 o trapped_q $end
    $var wire 32 $ x10 [31:0] $end
   $upscope $end
  $upscope $end
 $upscope $end
$enddefinitions $end


#5
0#
b00000000000000000000000000000000 $
b00000000000000000000000000000000 %
b00000000000000000000000000000000 &
b00000000000000000000000000000000 '
0(
b00000000000000000000000000000000 )
b00000000000000000000000000000000 *
0+
b00000 ,
b00000 -
b00000000000000000000000000000000 .
b00000000000000000000000000000000 /
b00000000000000000000000000000000 0
b00000000000000000000000000000000 1
b00000000000000000000000000000000 2
b00000000000000000000000000000000 3
b00000000000000000000000000000000 4
b00000000000000000000000000000000 5
b00000000000000000000000000000000 6
b00000000000000000000000000000000 7
b00000000000000000000000000000000 8
b00000000000000000000000000000000 9
b00000000000000000000000000000000 :
b00000000000000000000000000000000 ;
b00000000000000000000000000000000 <
b00000000000000000000000000000000 =
b00000000000000000000000000000000 >
b00000000000000000000000000000000 ?
b00000000000000000000000000000000 @
b00000000000000000000000000000000 A
b00000000000000000000000000000000 B
b00000000000000000000000000000000 C
b00000000000000000000000000000000 D
b00000000000000000000000000000000 E
b00000000000000000000000000000000 F
b00000000000000000000000000000000 G
b00000000000000000000000000000000 H
b00000000000000000000000000000000 I
b00000000000000000000000000000000 J
b00000000000000000000000000000000 K
b00000000000000000000000000000000 L
b00000000000000000000000000000000 M
b00000000000000000000000000000000 N
b00000000000000000000000000000000 O
b00000000000000000000000000000000 P
b00000000000000000000000000000000 Q
b00000000000000000000000000000000 R
b00000000000000000000000000000000 S
b00000000000000000000000000000000 T
b00000000000000000000000000000000 U
b0000000 V
b00000 W
b00000 X
b000 Y
b00000 Z
b0000000 [
b0000000 \
b00000 ]
b00000 ^
b000 _
b00000 `
b0000000 a
b000000000000 b
b000000000000 c
b0000000000000 d
b000000000000000000000 e
b00000000000000000000000000000000 f
b00000000000000000000000000000000 g
b00000000000000000000000000000000 h
b00000000000000000000000000000000 i
b00000000000000000000000000000000 j
b00000000000000000000000000000000 k
b00000000000000000000000000000000 l
b00000000000000000000000000000000 m
b00000000000000000000000000000000 n
0o
0p
1q
0r
0s
0t
0u
0v
b00000000000000000000000000000000 w
b00000000000000000000000000000100 x
0y
b00000000000000000000000000000000 z
b0000 {
b00000000000000000000000000000000 |
1}
0~
0!!
b00000000000000000000000000000000 "!
b00000000000000000000000000000000 #!
b0000 $!
0%!
b00000000000000000000000000000000 &!
b00000 '!
b00000 (!
b00000000000000000000000000000100 )!
0*!
0+!
0,!
1-!
0.!
0/!
00!
b00000000000000000000000000010000 1!
b00000000000000000000000000000000 2!
b00000000000000000000000000100000 3!
b0000011 4!
b0100011 5!
b1000011 6!
b1100011 7!
b0000111 8!
b0100111 9!
b1000111 :!
b1100111 ;!
b0001011 <!
b0101011 =!
b1001011 >!
b1101011 ?!
b0001111 @!
b0101111 A!
b1001111 B!
b1101111 C!
b0010011 D!
b0110011 E!
b1010011 F!
b1110011 G!
b0010111 H!
b0110111 I!
b1010111 J!
b1110111 K!
b0011011 L!
b0111011 M!
b1011011 N!
b1111011 O!
#10
#15
b00000000000000000000000000000000 x
b00000000000000000000000000000000 )!
0-!
10!
#20
#25
b00000000000000010000000100110111 %
b00000000000000000000000000000001 *
b11111111111111111111111111111100 N
b00010 X
b00010 Z
b0110111 [
b000000000010 c
b0000000000010 d
b000010000000000000000 e
b00000000000000000000000000000010 g
b00000000000000000000000000000010 h
b00000000000000010000000000000000 i
0q
1r
1v
1/!
#30
#35
0/!
#40
#45
b00000000000000000000000000000010 *
b00000000000000010000000100110111 P
b00010 ^
b00010 `
b0110111 a
b00000000000000000000000000000010 k
b00000000000000000000000000000010 l
b00000000000000010000000000000000 m
b00000000000000010000000000000000 n
1q
0r
1/!
#50
#55
0/!
#60
#65
b00000000000000000000000000000011 *
b00000000000000010000000000000000 T
1/!
#70
#75
0/!
#80
#85
b00000000000000000000000000000100 *
1/!
#90
#95
0/!
00!
#100
#105
b00000000000000000000000000000101 *
b00000000000000000000000000000000 N
0v
b00000000000000000000000000000100 x
b00000000000000000000000000000100 )!
1,!
1/!
#110
#115
0/!
#120
#125
b00000000100000000000010100010011 %
b00000000000000000000000000000110 *
b00000000000000010000000000000000 0
b00000000000000000000000000000100 N
b00000000000000000000000000000100 Q
b01000 W
b00000 X
b01010 Z
b0010011 [
b000000001000 b
b000000001010 c
b0000000001010 d
b000000000000000001000 e
b00000000000000000000000000001000 f
b00000000000000000000000000001010 g
b00000000000000000000000000001010 h
b00000000000000000000000000001000 i
0q
b00000000000000000000000000001000 x
b00000000000000000000000000001000 )!
1/!
#130
#135
0/!
#140
#145
b00000000100000000000000011101111 %
b00000000000000000000000000000111 *
b00000000000000000000000000001000 N
b00000000000000000000000000000100 O
b00000000100000000000010100010011 P
b00000000000000000000000000001000 Q
b00000000000000000000000000000000 T
b00001 Z
b1101111 [
b01000 ]
b00000 ^
b01010 `
b0010011 a
b000000000001 c
b0100000000000 d
b00000000000000000000000000000001 g
b00000000000000000000100000000000 h
b00000000000000000000000000001000 j
b00000000000000000000000000001010 k
b00000000000000000000000000001010 l
b00000000000000000000000000001000 m
b00000000000000000000000000001000 n
b00000000000000000000000000001100 x
b00000000000000000000000000001100 )!
1/!
#150
#155
0/!
#160
#165
b00000101110000000000000001101111 %
b00000000000000000000000000001000 *
b00000000000000000000000000001000 8
b00000000000000000000000000001100 N
b00000000000000000000000000001000 O
b00000000100000000000000011101111 P
b00000000000000000000000000001100 Q
b0000010 V
b11100 W
b00000 Z
b00001 `
b1101111 a
b000001011100 b
b000001000000 c
b0000001000000 d
b000000000000001011100 e
b00000000000000000000000001011100 f
b00000000000000000000000001000000 g
b00000000000000000000000001000000 h
b00000000000000000000000001011100 i
b00000000000000000000000000000001 k
b00000000000000000000100000000000 l
b00000000000000000000000000001100 n
1p
1t
b00000000000000000000000000010000 x
b00000000000000000000000000010000 )!
1/!
#170
#175
0/!
#180
#185
b00000000000000000000000000001000 $
b11111111000000010000000100010011 %
b00000000000000000000000000001001 *
b00000000000000000000000000001100 /
b00000000000000000000000000010000 N
b00000000000000000000000000001100 O
b00000101110000000000000001101111 P
b00000000000000000000000000010000 Q
b00000000000000010000000000000000 R
b1111111 V
b10000 W
b00010 X
b00010 Z
b0010011 [
b0000010 \
b11100 ]
b00000 `
b111111110000 b
b111111100010 c
b1011111100010 d
b100010000011111110000 e
b11111111111111111111111111110000 f
b11111111111111111111111111100010 g
b11111111111111111111011111100010 h
b11111111111100010000011111110000 i
b00000000000000000000000001011100 j
b00000000000000000000000001000000 k
b00000000000000000000000001000000 l
b00000000000000000000000001011100 m
b00000000000000000000000000000000 n
0p
1s
0t
b00000000000000000000000000010100 x
b00000000000000000000000000010100 )!
0,!
1/!
#190
#195
0/!
#200
#205
b00000000100000010010010000100011 %
b00000000000000000000000000001010 *
b00000000000000000000000000010100 N
b00000000000000000000000000010000 O
b11111111000000010000000100010011 P
b00000000000000000000000000010100 Q
b00000000000000010000000000000000 T
b0000000 V
b01000 W
b010 Y
b01000 Z
b0100011 [
b1111111 \
b10000 ]
b00010 ^
b00010 `
b0010011 a
b000000001000 b
b000000001000 c
b0000000001000 d
b000010010000000001000 e
b00000000000000000000000000001000 f
b00000000000000000000000000001000 g
b00000000000000000000000000001000 h
b00000000000000010010000000001000 i
b11111111111111111111111111110000 j
b11111111111111111111111111100010 k
b11111111111111111111011111100010 l
b11111111111100010000011111110000 m
b00000000000000001111111111110000 n
1q
0s
b00000000000000000000000000011000 x
b00000000000000000000000000011000 )!
1,!
1/!
#210
#215
0/!
#220
#225
b00000000100100010010001000100011 %
b00000000000000000000000000001011 *
b00000000000000001111111111110000 0
b00000000000000000000000000011000 N
b00000000000000000000000000010100 O
b00000000100000010010010000100011 P
b00000000000000000000000000011000 Q
b00000000000000001111111111110000 R
b00000000000000001111111111110000 T
b01001 W
b00100 Z
b0000000 \
b01000 ]
b010 _
b01000 `
b0100011 a
b000000001001 b
b000000000100 c
b0000000000100 d
b000010010100000001000 e
b00000000000000000000000000001001 f
b00000000000000000000000000000100 g
b00000000000000000000000000000100 h
b00000000000000010010100000001000 i
b00000000000000000000000000001000 j
b00000000000000000000000000001000 k
b00000000000000000000000000001000 l
b00000000000000010010000000001000 m
b00000000000000000000000000000000 n
0q
b00000000000000000000000000011100 x
1y
b00000000000000001111111111111000 z
b1111 {
1!!
b00000000000000001111111111111000 "!
b1111 $!
b00000000000000000000000000011100 )!
0,!
1/!
#230
#235
0/!
#240
#245
b00000001001000010010000000100011 %
b00000000000000000000000000000100 )
b00000000000000000000000000001100 *
b00000000000000000000000000011100 N
b00000000000000000000000000011000 O
b00000000100100010010001000100011 P
b00000000000000000000000000011100 Q
b10010 W
b00000 Z
b01001 ]
b00100 `
b000000010010 b
b000000000000 c
b0000000000000 d
b000010010000000010010 e
b00000000000000000000000000010010 f
b00000000000000000000000000000000 g
b00000000000000000000000000000000 h
b00000000000000010010000000010010 i
b00000000000000000000000000001001 j
b00000000000000000000000000000100 k
b00000000000000000000000000000100 l
b00000000000000010010100000001000 m
b00000000000000000000000000100000 x
b00000000000000001111111111110100 z
b00000000000000001111111111110100 "!
b00000000000000000000000000100000 )!
1/!
#250
#255
0/!
#260
#265
b00000000000100010010011000100011 %
b00000000000000000000000000001101 *
b00000000000000000000000000100000 N
b00000000000000000000000000011100 O
b00000001001000010010000000100011 P
b00000000000000000000000000100000 Q
b00000000000000000000000000001100 S
b00001 W
b01100 Z
b10010 ]
b00000 `
b000000000001 b
b000000001100 c
b0000000001100 d
b000010010100000000000 e
b00000000000000000000000000000001 f
b00000000000000000000000000001100 g
b00000000000000000000000000001100 h
b00000000000000010010100000000000 i
b00000000000000000000000000010010 j
b00000000000000000000000000000000 k
b00000000000000000000000000000000 l
b00000000000000010010000000010010 m
b00000000000000000000000000100100 x
b00000000000000001111111111110000 z
b00000000000000001111111111110000 "!
b00000000000000000000000000100100 )!
1/!
#270
#275
0/!
#280
#285
b00000000000001010000010000010011 %
b00000000000000000000000000001110 *
b00000000000000000000000000100100 N
b00000000000000000000000000100000 O
b00000000000100010010011000100011 P
b00000000000000000000000000100100 Q
b00000000000000000000000000001000 R
b00000000000000000000000000000000 S
b00000000000000000000000000001100 U
b00000 W
b01010 X
b000 Y
b01000 Z
b0010011 [
b00001 ]
b01100 `
b000000000000 b
b000000001000 c
b0000000001000 d
b001010000000000000000 e
b00000000000000000000000000000000 f
b00000000000000000000000000001000 g
b00000000000000000000000000001000 h
b00000000000001010000000000000000 i
b00000000000000000000000000000001 j
b00000000000000000000000000001100 k
b00000000000000000000000000001100 l
b00000000000000010010100000000000 m
b00000000000000000000000000101000 x
b00000000000000001111111111111100 z
b00000000000000000000000000001100 |
b00000000000000001111111111111100 "!
b00000000000000000000000000001100 #!
b00000000000000000000000000101000 )!
1/!
#290
#295
0/!
#300
#305
b00000000000000000000010010010011 %
b00000000000000000000000000001111 *
b00000000000000000000000000101000 N
b00000000000000000000000000100100 O
b00000000000001010000010000010011 P
b00000000000000000000000000101000 Q
b00000000000000000000000000000000 R
b00000000000000000000000000001000 T
b00000000000000000000000000000000 U
b00000 X
b01001 Z
b00000 ]
b01010 ^
b000 _
b01000 `
b0010011 a
b000000001001 c
b0100000001000 d
b000000000000000000000 e
b00000000000000000000000000001001 g
b00000000000000000000100000001000 h
b00000000000000000000000000000000 i
b00000000000000000000000000000000 j
b00000000000000000000000000001000 k
b00000000000000000000000000001000 l
b00000000000001010000000000000000 m
b00000000000000000000000000001000 n
b00000000000000000000000000101100 x
0y
b00000000000000000000000000000000 z
b0000 {
b00000000000000000000000000000000 |
0!!
b00000000000000000000000000000000 "!
b00000000000000000000000000000000 #!
b0000 $!
b00000000000000000000000000101100 )!
1,!
1/!
#310
#315
0/!
#320
#325
b00000000000100000000100100010011 %
b00000000000000000000000000010000 *
b00000000000000000000000000001000 6
b00000000000000000000000000101100 N
b00000000000000000000000000101000 O
b00000000000000000000010010010011 P
b00000000000000000000000000101100 Q
b00000000000000000000000000001100 S
b00000000000000000000000000000000 T
b00001 W
b10010 Z
b00000 ^
b01001 `
b000000000001 b
b000000010010 c
b0000000010010 d
b000000000100000000000 e
b00000000000000000000000000000001 f
b00000000000000000000000000010010 g
b00000000000000000000000000010010 h
b00000000000000000000100000000000 i
b00000000000000000000000000001001 k
b00000000000000000000100000001000 l
b00000000000000000000000000000000 m
b00000000000000000000000000000000 n
b00000000000000000000000000110000 x
b00000000000000000000000000110000 )!
1/!
#330
#335
0/!
#340
#345
b00000000100000000000111001100011 %
b00000000000000000000000000010001 *
b00000000000000000000000000110000 N
b00000000000000000000000000101100 O
b00000000000100000000100100010011 P
b00000000000000000000000000110000 Q
b00000000000000000000000000001000 S
b00000000000000000000000000001100 U
b01000 W
b11100 Z
b1100011 [
b00001 ]
b10010 `
b000000001000 b
b000000011100 c
b0000000011100 d
b000000000000000001000 e
b00000000000000000000000000001000 f
b00000000000000000000000000011100 g
b00000000000000000000000000011100 h
b00000000000000000000000000001000 i
b00000000000000000000000000000001 j
b00000000000000000000000000010010 k
b00000000000000000000000000010010 l
b00000000000000000000100000000000 m
b00000000000000000000000000000001 n
b00000000000000000000000000110100 x
b00000000000000000000000000110100 )!
1/!
#350
#355
0/!
#360
#365
b00000001001001000000110001100011 %
b00000000000000000000000000010010 *
b00000000000000000000000000000001 @
b00000000000000000000000000110100 N
b00000000000000000000000000110000 O
b00000000100000000000111001100011 P
b00000000000000000000000000110100 Q
b00000000000000000000000000001000 R
b00000000000000000000000000000001 S
b00000000000000000000000000001000 U
b10010 W
b01000 X
b11000 Z
b01000 ]
b11100 `
b1100011 a
b000000010010 b
b000000011000 c
b0000000011000 d
b001000000000000010010 e
b00000000000000000000000000010010 f
b00000000000000000000000000011000 g
b00000000000000000000000000011000 h
b00000000000001000000000000010010 i
b00000000000000000000000000001000 j
b00000000000000000000000000011100 k
b00000000000000000000000000011100 l
b00000000000000000000000000001000 m
b00000000000000000000000000000000 n
b00000000000000000000000000111000 x
b00000000000000000000000000111000 )!
0,!
1/!
#370
#375
0/!
#380
#385
b11111111111101000000010100010011 %
b00000000000000000000000000010011 *
b00000000000000000000000000111000 N
b00000000000000000000000000110100 O
b00000001001001000000110001100011 P
b00000000000000000000000000111000 Q
b00000000000000000000000000000000 S
b00000000000000000000000000001000 T
b00000000000000000000000000000001 U
b1111111 V
b11111 W
b01010 Z
b0010011 [
b10010 ]
b01000 ^
b11000 `
b111111111111 b
b111111101010 c
b1011111101010 d
b101000000111111111110 e
b11111111111111111111111111111111 f
b11111111111111111111111111101010 g
b11111111111111111111011111101010 h
b11111111111101000000111111111110 i
b00000000000000000000000000010010 j
b00000000000000000000000000011000 k
b00000000000000000000000000011000 l
b00000000000001000000000000010010 m
b00000000000000000000000000111100 x
b00000000000000000000000000111100 )!
1/!
#390
#395
0/!
#400
#405
b11111101010111111111000011101111 %
b00000000000000000000000000010100 *
b00000000000000000000000000111100 N
b00000000000000000000000000111000 O
b11111111111101000000010100010011 P
b00000000000000000000000000111100 Q
b00000000000000000000000000000000 R
b00000000000000000000000000000000 U
b1111110 V
b10101 W
b11111 X
b111 Y
b00001 Z
b1101111 [
b1111111 \
b11111 ]
b01010 `
b0010011 a
b111111010101 b
b111111000001 c
b1111111000000 d
b111111111111111010100 e
b11111111111111111111111111010101 f
b11111111111111111111111111000001 g
b11111111111111111111111111000000 h
b11111111111111111111111111010100 i
b11111111111111111111111111111111 j
b11111111111111111111111111101010 k
b11111111111111111111011111101010 l
b11111111111101000000111111111110 m
b00000000000000000000000000000111 n
b00000000000000000000000001000000 x
b00000000000000000000000001000000 )!
1,!
1/!
#410
#415
0/!
#420
#425
b11111111111001000000010000010011 %
b00000000000000000000000000010101 *
b00000000000000000000000000000111 8
b00000000000000000000000001000000 N
b00000000000000000000000000111100 O
b11111101010111111111000011101111 P
b00000000000000000000000001000000 Q
b00000000000000000000000000001000 R
b00000000000000000000000000000000 T
b1111111 V
b11110 W
b01000 X
b000 Y
b01000 Z
b0010011 [
b1111110 \
b10101 ]
b11111 ^
b111 _
b00001 `
b1101111 a
b111111111110 b
b111111101000 c
b1011111101000 d
b101000000011111111110 e
b11111111111111111111111111111110 f
b11111111111111111111111111101000 g
b11111111111111111111011111101000 h
b11111111111101000000011111111110 i
b11111111111111111111111111010101 j
b11111111111111111111111111000001 k
b11111111111111111111111111000000 l
b11111111111111111111111111010100 m
b00000000000000000000000001000000 n
1p
1t
b00000000000000000000000000010000 x
b00000000000000000000000000010000 )!
1/!
#430
#435
0/!
#440
#445
b00000000000000000000000000000111 $
b11111111000000010000000100010011 %
b00000000000000000000000000010110 *
b00000000000000000000000001000000 /
b00000000000000000000000000010000 N
b00000000000000000000000001000000 O
b11111111111001000000010000010011 P
b00000000000000000000000000010000 Q
b00000000000000001111111111110000 R
b00000000000000000000000000001000 T
b10000 W
b00010 X
b00010 Z
b1111111 \
b11110 ]
b01000 ^
b000 _
b01000 `
b0010011 a
b111111110000 b
b111111100010 c
b1011111100010 d
b100010000011111110000 e
b11111111111111111111111111110000 f
b11111111111111111111111111100010 g
b11111111111111111111011111100010 h
b11111111111100010000011111110000 i
b11111111111111111111111111111110 j
b11111111111111111111111111101000 k
b11111111111111111111011111101000 l
b11111111111101000000011111111110 m
b00000000000000000000000000000000 n
0p
1s
0t
b00000000000000000000000000010100 x
b00000000000000000000000000010100 )!
0,!
1/!
#450
#455
0/!
#460
#465
b00000000100000010010010000100011 %
b00000000000000000000000000010111 *
b00000000000000000000000000010100 N
b00000000000000000000000000010000 O
b11111111000000010000000100010011 P
b00000000000000000000000000010100 Q
b00000000000000000000000000001000 S
b00000000000000001111111111110000 T
b0000000 V
b01000 W
b010 Y
b01000 Z
b0100011 [
b10000 ]
b00010 ^
b00010 `
b000000001000 b
b000000001000 c
b0000000001000 d
b000010010000000001000 e
b00000000000000000000000000001000 f
b00000000000000000000000000001000 g
b00000000000000000000000000001000 h
b00000000000000010010000000001000 i
b11111111111111111111111111110000 j
b11111111111111111111111111100010 k
b11111111111111111111011111100010 l
b11111111111100010000011111110000 m
b00000000000000001111111111100000 n
1q
0s
b00000000000000000000000000011000 x
b00000000000000000000000000011000 )!
1,!
1/!
#470
#475
0/!
#480
#485
b00000000100100010010001000100011 %
b00000000000000000000000000011000 *
b00000000000000001111111111100000 0
b00000000000000000000000000011000 N
b00000000000000000000000000010100 O
b00000000100000010010010000100011 P
b00000000000000000000000000011000 Q
b00000000000000001111111111100000 R
b00000000000000000000000000000000 S
b00000000000000001111111111100000 T
b00000000000000000000000000001000 U
b01001 W
b00100 Z
b0000000 \
b01000 ]
b010 _
b01000 `
b0100011 a
b000000001001 b
b000000000100 c
b0000000000100 d
b000010010100000001000 e
b00000000000000000000000000001001 f
b00000000000000000000000000000100 g
b00000000000000000000000000000100 h
b00000000000000010010100000001000 i
b00000000000000000000000000001000 j
b00000000000000000000000000001000 k
b00000000000000000000000000001000 l
b00000000000000010010000000001000 m
b00000000000000000000000000000000 n
0q
b00000000000000000000000000011100 x
1y
b00000000000000001111111111101000 z
b1111 {
b00000000000000000000000000001000 |
1!!
b00000000000000001111111111101000 "!
b00000000000000000000000000001000 #!
b1111 $!
b00000000000000000000000000011100 )!
0,!
1/!
#490
#495
0/!
#500
#505
b00000001001000010010000000100011 %
b00000000000000000000000000011001 *
b00000000000000000000000000011100 N
b00000000000000000000000000011000 O
b00000000100100010010001000100011 P
b00000000000000000000000000011100 Q
b00000000000000000000000000000001 S
b00000000000000000000000000000000 U
b10010 W
b00000 Z
b01001 ]
b00100 `
b000000010010 b
b000000000000 c
b0000000000000 d
b000010010000000010010 e
b00000000000000000000000000010010 f
b00000000000000000000000000000000 g
b00000000000000000000000000000000 h
b00000000000000010010000000010010 i
b00000000000000000000000000001001 j
b00000000000000000000000000000100 k
b00000000000000000000000000000100 l
b00000000000000010010100000001000 m
b00000000000000000000000000100000 x
b00000000000000001111111111100100 z
b00000000000000000000000000000000 |
b00000000000000001111111111100100 "!
b00000000000000000000000000000000 #!
b00000000000000000000000000100000 )!
1/!
#510
#515
0/!
#520
#525
b00000000000100010010011000100011 %
b00000000000000000000000000011010 *
b00000000000000000000000000100000 N
b00000000000000000000000000011100 O
b00000001001000010010000000100011 P
b00000000000000000000000000100000 Q
b00000000000000000000000001000000 S
b00000000000000000000000000000001 U
b00001 W
b01100 Z
b10010 ]
b00000 `
b000000000001 b
b000000001100 c
b0000000001100 d
b000010010100000000000 e
b00000000000000000000000000000001 f
b00000000000000000000000000001100 g
b00000000000000000000000000001100 h
b00000000000000010010100000000000 i
b00000000000000000000000000010010 j
b00000000000000000000000000000000 k
b00000000000000000000000000000000 l
b00000000000000010010000000010010 m
b00000000000000000000000000100100 x
b00000000000000001111111111100000 z
b00000000000000000000000000000001 |
b00000000000000001111111111100000 "!
b00000000000000000000000000000001 #!
b00000000000000000000000000100100 )!
1/!
#530
#535
0/!
#540
#545
b00000000000001010000010000010011 %
b00000000000000000000000000011011 *
b00000000000000000000000000100100 N
b00000000000000000000000000100000 O
b00000000000100010010011000100011 P
b00000000000000000000000000100100 Q
b00000000000000000000000000000111 R
b00000000000000000000000000000000 S
b00000000000000000000000001000000 U
b00000 W
b01010 X
b000 Y
b01000 Z
b0010011 [
b00001 ]
b01100 `
b000000000000 b
b000000001000 c
b0000000001000 d
b001010000000000000000 e
b00000000000000000000000000000000 f
b00000000000000000000000000001000 g
b00000000000000000000000000001000 h
b00000000000001010000000000000000 i
b00000000000000000000000000000001 j
b00000000000000000000000000001100 k
b00000000000000000000000000001100 l
b00000000000000010010100000000000 m
b00000000000000000000000000101000 x
b00000000000000001111111111101100 z
b00000000000000000000000001000000 |
b00000000000000001111111111101100 "!
b00000000000000000000000001000000 #!
b00000000000000000000000000101000 )!
1/!
#550
#555
0/!
#560
