single_cycle_risc/testbench/processor_tb_2.vcd
$date
	Wed Jun  8 01:08:56 2022
$end
$version
	Icarus Verilog
$end
$timescale
	1s
$end
$scope module processor_tb_2 $end
$var reg 1 ! clk $end
$var reg 13 " counter [12:0] $end
$var reg 24 # func [23:0] $end
$var reg 1 $ new_func $end
$var reg 1 % reset $end
$var reg 1 & start $end
$scope module inst_processor_test $end
$var wire 16 ' bus [15:0] $end
$var wire 1 ! clk $end
$var wire 24 ( func [23:0] $end
$var wire 1 ) mem_enable $end
$var wire 1 $ new_func $end
$var wire 1 % reset $end
$var wire 1 & start $end
$var wire 19 * tri_sig [18:0] $end
$var wire 19 + reg_sig [18:0] $end
$var wire 1 , pc_enable $end
$var wire 24 - mem_out [23:0] $end
$var wire 1 . branch $end
$var wire 16 / addr [15:0] $end
$var reg 24 0 func_in [23:0] $end
$var reg 1 1 new_ins $end
$scope module control_unit $end
$var wire 1 ! clk $end
$var wire 24 2 func [23:0] $end
$var wire 1 1 new_ins $end
$var wire 1 3 reset $end
$var wire 19 4 tri_sig [18:0] $end
$var wire 19 5 reg_sig [18:0] $end
$var wire 1 , pc_enable $end
$var wire 5 6 next_state [4:0] $end
$var wire 5 7 curr_state [4:0] $end
$var wire 4 8 count [3:0] $end
$var wire 1 . branch $end
$scope module inst_decoder $end
$var wire 24 9 func [23:0] $end
$var wire 19 : tri_sig [18:0] $end
$var wire 5 ; state [4:0] $end
$var wire 19 < reg_sig [18:0] $end
$var reg 1 . branch $end
$var reg 4 = count [3:0] $end
$var reg 1 , pc_enable $end
$var reg 5 > reg_in [4:0] $end
$var reg 5 ? tri_out [4:0] $end
$scope module reg_decode $end
$var wire 5 @ index_in [4:0] $end
$var reg 19 A sig_out [18:0] $end
$upscope $end
$scope module tri_decode $end
$var wire 5 B index_in [4:0] $end
$var reg 19 C sig_out [18:0] $end
$upscope $end
$upscope $end
$scope module inst_ns $end
$var wire 4 D count [3:0] $end
$var wire 4 E ins [3:0] $end
$var wire 1 1 new_ins $end
$var wire 1 3 reset $end
$var wire 5 F curr_state [4:0] $end
$var reg 5 G next_state [4:0] $end
$upscope $end
$scope module inst_state_reg $end
$var wire 5 H D [4:0] $end
$var wire 1 ! clk $end
$var wire 1 3 rst $end
$var reg 5 I Q [4:0] $end
$upscope $end
$upscope $end
$scope module datapath_inst $end
$var wire 16 J bus [15:0] $end
$var wire 1 ! clk $end
$var wire 24 K func [23:0] $end
$var wire 19 L reg_sig [18:0] $end
$var wire 1 % reset $end
$var wire 19 M tri_sig [18:0] $end
$var wire 16 N address [15:0] $end
$var wire 16 O G_output [15:0] $end
$var wire 16 P ALU_out [15:0] $end
$var wire 16 Q ALU_in [15:0] $end
$scope module A_reg $end
$var wire 16 R D [15:0] $end
$var wire 1 ! clk $end
$var wire 1 S enable $end
$var wire 1 T reset $end
$var reg 16 U Q [15:0] $end
$upscope $end
$scope module data_tri $end
$var wire 16 V a [15:0] $end
$var wire 1 W enable $end
$var reg 16 X b [15:0] $end
$upscope $end
$scope module g $end
$var wire 1 ! clk $end
$var wire 1 Y enable $end
$var wire 1 Z reset $end
$var wire 16 [ D [15:0] $end
$var reg 16 \ Q [15:0] $end
$upscope $end
$scope module g_tri $end
$var wire 16 ] a [15:0] $end
$var wire 1 ^ enable $end
$var reg 16 _ b [15:0] $end
$upscope $end
$scope module inst_alu $end
$var wire 16 ` a_in [15:0] $end
$var wire 16 a b_in [15:0] $end
$var wire 4 b ins [3:0] $end
$var reg 16 c alu_out [15:0] $end
$upscope $end
$scope module pc_tri $end
$var wire 1 d enable $end
$var wire 16 e a [15:0] $end
$var reg 16 f b [15:0] $end
$upscope $end
$scope module r0 $end
$var wire 16 g D [15:0] $end
$var wire 1 ! clk $end
$var wire 1 h enable $end
$var wire 1 % reset $end
$var reg 16 i Q [15:0] $end
$upscope $end
$scope module r1 $end
$var wire 16 j D [15:0] $end
$var wire 1 ! clk $end
$var wire 1 k enable $end
$var wire 1 % reset $end
$var reg 16 l Q [15:0] $end
$upscope $end
$scope module r10 $end
$var wire 16 m D [15:0] $end
$var wire 1 ! clk $end
$var wire 1 n enable $end
$var wire 1 % reset $end
$var reg 16 o Q [15:0] $end
$upscope $end
$scope module r11 $end
$var wire 16 p D [15:0] $end
$var wire 1 ! clk $end
$var wire 1 q enable $end
$var wire 1 % reset $end
$var reg 16 r Q [15:0] $end
$upscope $end
$scope module r12 $end
$var wire 16 s D [15:0] $end
$var wire 1 ! clk $end
$var wire 1 t enable $end
$var wire 1 % reset $end
$var reg 16 u Q [15:0] $end
$upscope $end
$scope module r13 $end
$var wire 16 v D [15:0] $end
$var wire 1 ! clk $end
$var wire 1 w enable $end
$var wire 1 % reset $end
$var reg 16 x Q [15:0] $end
$upscope $end
$scope module r14 $end
$var wire 16 y D [15:0] $end
$var wire 1 ! clk $end
$var wire 1 z enable $end
$var wire 1 % reset $end
$var reg 16 { Q [15:0] $end
$upscope $end
$scope module r15 $end
$var wire 16 | D [15:0] $end
$var wire 1 ! clk $end
$var wire 1 } enable $end
$var wire 1 % reset $end
$var reg 16 ~ Q [15:0] $end
$upscope $end
$scope module r2 $end
$var wire 16 !" D [15:0] $end
$var wire 1 ! clk $end
$var wire 1 "" enable $end
$var wire 1 % reset $end
$var reg 16 #" Q [15:0] $end
$upscope $end
$scope module r3 $end
$var wire 16 $" D [15:0] $end
$var wire 1 ! clk $end
$var wire 1 %" enable $end
$var wire 1 % reset $end
$var reg 16 &" Q [15:0] $end
$upscope $end
$scope module r4 $end
$var wire 16 '" D [15:0] $end
$var wire 1 ! clk $end
$var wire 1 (" enable $end
$var wire 1 % reset $end
$var reg 16 )" Q [15:0] $end
$upscope $end
$scope module r5 $end
$var wire 16 *" D [15:0] $end
$var wire 1 ! clk $end
$var wire 1 +" enable $end
$var wire 1 % reset $end
$var reg 16 ," Q [15:0] $end
$upscope $end
$scope module r6 $end
$var wire 16 -" D [15:0] $end
$var wire 1 ! clk $end
$var wire 1 ." enable $end
$var wire 1 % reset $end
$var reg 16 /" Q [15:0] $end
$upscope $end
$scope module r7 $end
$var wire 16 0" D [15:0] $end
$var wire 1 ! clk $end
$var wire 1 1" enable $end
$var wire 1 % reset $end
$var reg 16 2" Q [15:0] $end
$upscope $end
$scope module r8 $end
$var wire 16 3" D [15:0] $end
$var wire 1 ! clk $end
$var wire 1 4" enable $end
$var wire 1 % reset $end
$var reg 16 5" Q [15:0] $end
$upscope $end
$scope module r9 $end
$var wire 16 6" D [15:0] $end
$var wire 1 ! clk $end
$var wire 1 7" enable $end
$var wire 1 % reset $end
$var reg 16 8" Q [15:0] $end
$upscope $end
$scope module t0 $end
$var wire 16 9" a [15:0] $end
$var wire 1 :" enable $end
$var reg 16 ;" b [15:0] $end
$upscope $end
$scope module t1 $end
$var wire 16 <" a [15:0] $end
$var wire 1 =" enable $end
$var reg 16 >" b [15:0] $end
$upscope $end
$scope module t10 $end
$var wire 16 ?" a [15:0] $end
$var wire 1 @" enable $end
$var reg 16 A" b [15:0] $end
$upscope $end
$scope module t11 $end
$var wire 16 B" a [15:0] $end
$var wire 1 C" enable $end
$var reg 16 D" b [15:0] $end
$upscope $end
$scope module t12 $end
$var wire 16 E" a [15:0] $end
$var wire 1 F" enable $end
$var reg 16 G" b [15:0] $end
$upscope $end
$scope module t13 $end
$var wire 16 H" a [15:0] $end
$var wire 1 I" enable $end
$var reg 16 J" b [15:0] $end
$upscope $end
$scope module t14 $end
$var wire 16 K" a [15:0] $end
$var wire 1 L" enable $end
$var reg 16 M" b [15:0] $end
$upscope $end
$scope module t15 $end
$var wire 16 N" a [15:0] $end
$var wire 1 O" enable $end
$var reg 16 P" b [15:0] $end
$upscope $end
$scope module t2 $end
$var wire 16 Q" a [15:0] $end
$var wire 1 R" enable $end
$var reg 16 S" b [15:0] $end
$upscope $end
$scope module t3 $end
$var wire 16 T" a [15:0] $end
$var wire 1 U" enable $end
$var reg 16 V" b [15:0] $end
$upscope $end
$scope module t4 $end
$var wire 16 W" a [15:0] $end
$var wire 1 X" enable $end
$var reg 16 Y" b [15:0] $end
$upscope $end
$scope module t5 $end
$var wire 16 Z" a [15:0] $end
$var wire 1 [" enable $end
$var reg 16 \" b [15:0] $end
$upscope $end
$scope module t6 $end
$var wire 16 ]" a [15:0] $end
$var wire 1 ^" enable $end
$var reg 16 _" b [15:0] $end
$upscope $end
$scope module t7 $end
$var wire 16 `" a [15:0] $end
$var wire 1 a" enable $end
$var reg 16 b" b [15:0] $end
$upscope $end
$scope module t8 $end
$var wire 16 c" a [15:0] $end
$var wire 1 d" enable $end
$var reg 16 e" b [15:0] $end
$upscope $end
$scope module t9 $end
$var wire 16 f" a [15:0] $end
$var wire 1 g" enable $end
$var reg 16 h" b [15:0] $end
$upscope $end
$upscope $end
$scope module inst_pc $end
$var wire 1 . branch $end
$var wire 16 i" bus [15:0] $end
$var wire 1 ! clk $end
$var wire 1 , pc_enable $end
$var wire 1 % rst $end
$var wire 1 & start $end
$var reg 16 j" address [15:0] $end
$upscope $end
$scope module rom_inst $end
$var wire 16 k" addr [15:0] $end
$var wire 1 ! clk $end
$var reg 16 l" data_1 [15:0] $end
$var reg 16 m" data_2 [15:0] $end
$var reg 24 n" func_out [23:0] $end
$var reg 12 o" low_12 [11:0] $end
$var reg 16 p" low_16 [15:0] $end
$upscope $end
$upscope $end
$upscope $end
$enddefinitions $end
#0
$dumpvars
b0 p"
b0 o"
bx n"
b100 m"
b10000 l"
b0 k"
b0 j"
bx i"
bx h"
xg"
b0 f"
bx e"
xd"
b0 c"
bx b"
xa"
b0 `"
bx _"
x^"
b0 ]"
bx \"
x["
b0 Z"
bx Y"
xX"
b0 W"
bx V"
xU"
b0 T"
bx S"
xR"
b0 Q"
bx P"
xO"
b0 N"
bx M"
xL"
b0 K"
bx J"
xI"
b0 H"
bx G"
xF"
b0 E"
bx D"
xC"
b0 B"
bx A"
x@"
b0 ?"
bx >"
x="
b0 <"
bx ;"
x:"
b0 9"
b0 8"
x7"
bx 6"
b0 5"
x4"
bx 3"
b0 2"
x1"
bx 0"
b0 /"
x."
bx -"
b0 ,"
x+"
bx *"
b0 )"
x("
bx '"
b0 &"
x%"
bx $"
b0 #"
x""
bx !"
b0 ~
x}
bx |
b0 {
xz
bx y
b0 x
xw
bx v
b0 u
xt
bx s
b0 r
xq
bx p
b0 o
xn
bx m
b0 l
xk
bx j
b0 i
xh
bx g
bx f
b0 e
xd
bx c
bx b
bx a
bx `
bx _
x^
bx ]
bx \
bx [
zZ
xY
bx X
xW
bx V
bx U
zT
xS
bx R
bx Q
bx P
bx O
b0 N
bx M
bx L
bx K
bx J
bx I
b0 H
b0 G
bx F
bx E
b0 D
bx C
bx B
bx A
bx @
bx ?
bx >
b0 =
bx <
bx ;
bx :
bx 9
b0 8
bx 7
b0 6
bx 5
bx 4
z3
bx 2
11
bx 0
b0 /
x.
bx -
x,
bx +
bx *
1)
bx (
bx '
0&
1%
x$
bx #
b0 "
0!
$end
#25
bz '
bz J
bz R
bz a
bz g
bz j
bz m
bz p
bz s
bz v
bz y
bz |
bz !"
bz $"
bz '"
bz *"
bz -"
bz 0"
bz 3"
bz 6"
bz i"
bz ;"
bz >"
bz S"
bz V"
bz Y"
bz \"
bz _"
bz b"
bz e"
bz h"
bz A"
bz D"
bz G"
bz J"
bz M"
bz P"
bz f
bz X
bz _
0:"
0="
0R"
0U"
0X"
0["
0^"
0a"
0d"
0g"
0@"
0C"
0F"
0I"
0L"
0O"
0d
0W
0^
0h
0k
0""
0%"
0("
0+"
0."
01"
04"
07"
0n
0q
0t
0w
0z
0}
0S
0Y
b0 *
b0 4
b0 :
b0 C
b0 M
b0 +
b0 5
b0 <
b0 A
b0 L
0,
0.
b11010 ?
b11010 B
b11010 >
b11010 @
b1 6
b1 G
b1 H
b0 7
b0 ;
b0 F
b0 I
1!
#50
1&
0%
0!
b1 "
#75
b10 6
b10 G
b10 H
b0 E
b0 V
b0 b
b0 0
b0 2
b0 9
b0 K
b1 7
b1 ;
b1 F
b1 I
b1 /
b1 N
b1 e
b1 j"
b1 k"
b0 -
b0 n"
1!
#100
0&
0!
b10 "
#125
b110 6
b110 G
b110 H
b10000 V
b10000 0
b10000 2
b10000 9
b10000 K
b10 7
b10 ;
b10 F
b10 I
b10000 -
b10000 n"
1!
#150
0!
b11 "
#175
b10000 '
b10000 J
b10000 R
b10000 a
b10000 g
b10000 j
b10000 m
b10000 p
b10000 s
b10000 v
b10000 y
b10000 |
b10000 !"
b10000 $"
b10000 '"
b10000 *"
b10000 -"
b10000 0"
b10000 3"
b10000 6"
b10000 i"
b10000 X
1W
1h
b100000000000000000 *
b100000000000000000 4
b100000000000000000 :
b100000000000000000 C
b100000000000000000 M
b1 +
b1 5
b1 <
b1 A
b1 L
b10001 ?
b10001 B
b0 >
b0 @
1,
b1 6
b1 G
b1 H
b110 7
b110 ;
b110 F
b110 I
1!
#200
0!
b100 "
#225
bz '
bz J
bz R
bz a
bz g
bz j
bz m
bz p
bz s
bz v
bz y
bz |
bz !"
bz $"
bz '"
bz *"
bz -"
bz 0"
bz 3"
bz 6"
bz i"
bz X
0W
0h
b0 *
b0 4
b0 :
b0 C
b0 M
b0 +
b0 5
b0 <
b0 A
b0 L
0,
b11010 ?
b11010 B
b11010 >
b11010 @
b10 6
b10 G
b10 H
b1 7
b1 ;
b1 F
b1 I
b10 /
b10 N
b10 e
b10 j"
b10 k"
b10000 i
b10000 9"
1!
#250
0!
b101 "
#275
b111 6
b111 G
b111 H
b1 E
b0 V
b1 b
b100100000000000000000 0
b100100000000000000000 2
b100100000000000000000 9
b100100000000000000000 K
b10 7
b10 ;
b10 F
b10 I
b100100000000000000000 -
b100100000000000000000 n"
1!
#300
0!
b110 "
#325
b10000 '
b10000 J
b10000 R
b10000 a
b10000 g
b10000 j
b10000 m
b10000 p
b10000 s
b10000 v
b10000 y
b10000 |
b10000 !"
b10000 $"
b10000 '"
b10000 *"
b10000 -"
b10000 0"
b10000 3"
b10000 6"
b10000 i"
b10000 ;"
1:"
1""
b1 *
b1 4
b1 :
b1 C
b1 M
b100 +
b100 5
b100 <
b100 A
b100 L
1,
b0 ?
b0 B
b10 >
b10 @
b1 6
b1 G
b1 H
b111 7
b111 ;
b111 F
b111 I
1!
#350
0!
b111 "
#375
bz '
bz J
bz R
bz a
bz g
bz j
bz m
bz p
bz s
bz v
bz y
bz |
bz !"
bz $"
bz '"
bz *"
bz -"
bz 0"
bz 3"
bz 6"
bz i"
bz ;"
0:"
0""
b0 *
b0 4
b0 :
b0 C
b0 M
b0 +
b0 5
b0 <
b0 A
b0 L
b11010 ?
b11010 B
b11010 >
b11010 @
0,
b10 6
b10 G
b10 H
b1 7
b1 ;
b1 F
b1 I
b10000 #"
b10000 Q"
b11 /
b11 N
b11 e
b11 j"
b11 k"
1!
#400
0!
b1000 "
#425
b110 6
b110 G
b110 H
b0 E
b100 V
b0 b
b10000000000000100 0
b10000000000000100 2
b10000000000000100 9
b10000000000000100 K
b10 7
b10 ;
b10 F
b10 I
b10000000000000100 -
b10000000000000100 n"
1!
#450
0!
b1001 "
#475
b100 '
b100 J
b100 R
b100 a
b100 g
b100 j
b100 m
b100 p
b100 s
b100 v
b100 y
b100 |
b100 !"
b100 $"
b100 '"
b100 *"
b100 -"
b100 0"
b100 3"
b100 6"
b100 i"
b100 X
1W
1k
b100000000000000000 *
b100000000000000000 4
b100000000000000000 :
b100000000000000000 C
b100000000000000000 M
b10 +
b10 5
b10 <
b10 A
b10 L
b10001 ?
b10001 B
b1 >
b1 @
1,
b1 6
b1 G
b1 H
b110 7
b110 ;
b110 F
b110 I
1!
#500
0!
b1010 "
#525
bz '
bz J
bz R
bz a
bz g
bz j
bz m
bz p
bz s
bz v
bz y
bz |
bz !"
bz $"
bz '"
bz *"
bz -"
bz 0"
bz 3"
bz 6"
bz i"
bz X
0W
0k
b0 *
b0 4
b0 :
b0 C
b0 M
b0 +
b0 5
b0 <
b0 A
b0 L
0,
b11010 ?
b11010 B
b11010 >
b11010 @
b10 6
b10 G
b10 H
b1 7
b1 ;
b1 F
b1 I
b100 /
b100 N
b100 e
b100 j"
b100 k"
b100 l
b100 <"
1!
#550
0!
b1011 "
#575
b11 6
b11 G
b11 H
b10 E
b1000000000000 V
b10 b
b1000000001000000000000 0
b1000000001000000000000 2
b1000000001000000000000 9
b1000000001000000000000 K
b10 7
b10 ;
b10 F
b10 I
b1000000001000000000000 -
b1000000001000000000000 n"
1!
#600
0!
b1100 "
#625
b10000 '
b10000 J
b10000 R
b10000 a
b10000 g
b10000 j
b10000 m
b10000 p
b10000 s
b10000 v
b10000 y
b10000 |
b10000 !"
b10000 $"
b10000 '"
b10000 *"
b10000 -"
b10000 0"
b10000 3"
b10000 6"
b10000 i"
b10000 ;"
1:"
1S
b1 *
b1 4
b1 :
b1 C
b1 M
b100000000000000000 +
b100000000000000000 5
b100000000000000000 <
b100000000000000000 A
b100000000000000000 L
b0 ?
b0 B
b10001 >
b10001 @
b100 6
b100 G
b100 H
b11 7
b11 ;
b11 F
b11 I
1!
#650
0!
b1101 "
#675
bz ;"
b100 '
b100 J
b100 R
b100 a
b100 g
b100 j
b100 m
b100 p
b100 s
b100 v
b100 y
b100 |
b100 !"
b100 $"
b100 '"
b100 *"
b100 -"
b100 0"
b100 3"
b100 6"
b100 i"
b100 >"
0:"
1="
0S
1Y
b10 *
b10 4
b10 :
b10 C
b10 M
b10000000000000000 +
b10000000000000000 5
b10000000000000000 <
b10000000000000000 A
b10000000000000000 L
b1 ?
b1 B
b10000 >
b10000 @
b101 6
b101 G
b101 H
b10100 P
b10100 [
b10100 c
b100 7
b100 ;
b100 F
b100 I
b10000 Q
b10000 U
b10000 `
1!
#700
0!
b1110 "
#725
b100100 P
b100100 [
b100100 c
bz >"
b10100 '
b10100 J
b10100 R
b10100 a
b10100 g
b10100 j
b10100 m
b10100 p
b10100 s
b10100 v
b10100 y
b10100 |
b10100 !"
b10100 $"
b10100 '"
b10100 *"
b10100 -"
b10100 0"
b10100 3"
b10100 6"
b10100 i"
b10100 _
0="
1^
1h
0Y
b10000000000000000 *
b10000000000000000 4
b10000000000000000 :
b10000000000000000 C
b10000000000000000 M
b1 +
b1 5
b1 <
b1 A
b1 L
1,
b10000 ?
b10000 B
b0 >
b0 @
b1 6
b1 G
b1 H
b101 7
b101 ;
b101 F
b101 I
b10100 O
b10100 \
b10100 ]
1!
#750
0!
b1111 "
#775
bx P
bx [
bx c
bz '
bz J
bz R
bz a
bz g
bz j
bz m
bz p
bz s
bz v
bz y
bz |
bz !"
bz $"
bz '"
bz *"
bz -"
bz 0"
bz 3"
bz 6"
bz i"
bz _
0^
0h
b0 *
b0 4
b0 :
b0 C
b0 M
b0 +
b0 5
b0 <
b0 A
b0 L
b11010 ?
b11010 B
b11010 >
b11010 @
0,
b10 6
b10 G
b10 H
b1 7
b1 ;
b1 F
b1 I
b10100 i
b10100 9"
b101 /
b101 N
b101 e
b101 j"
b101 k"
1!
#800
0!
b10000 "
#825
b11 6
b11 G
b11 H
b11 E
b0 V
b11 b
b1100100000000000000000 0
b1100100000000000000000 2
b1100100000000000000000 9
b1100100000000000000000 K
b10 7
b10 ;
b10 F
b10 I
b1100100000000000000000 -
b1100100000000000000000 n"
1!
#850
0!
b10001 "
#875
b0 P
b0 [
b0 c
b10000 '
b10000 J
b10000 R
b10000 a
b10000 g
b10000 j
b10000 m
b10000 p
b10000 s
b10000 v
b10000 y
b10000 |
b10000 !"
b10000 $"
b10000 '"
b10000 *"
b10000 -"
b10000 0"
b10000 3"
b10000 6"
b10000 i"
b10000 S"
1R"
1S
b100 *
b100 4
b100 :
b100 C
b100 M
b100000000000000000 +
b100000000000000000 5
b100000000000000000 <
b100000000000000000 A
b100000000000000000 L
b10 ?
b10 B
b10001 >
b10001 @
b100 6
b100 G
b100 H
b11 7
b11 ;
b11 F
b11 I
1!
#900
0!
b10010 "
#925
b100 P
b100 [
b100 c
b10100 ;"
b10100 '
b10100 J
b10100 R
b10100 a
b10100 g
b10100 j
b10100 m
b10100 p
b10100 s
b10100 v
b10100 y
b10100 |
b10100 !"
b10100 $"
b10100 '"
b10100 *"
b10100 -"
b10100 0"
b10100 3"
b10100 6"
b10100 i"
bz S"
1:"
0R"
0S
1Y
b1 *
b1 4
b1 :
b1 C
b1 M
b10000000000000000 +
b10000000000000000 5
b10000000000000000 <
b10000000000000000 A
b10000000000000000 L
b0 ?
b0 B
b10000 >
b10000 @
b101 6
b101 G
b101 H
b100 7
b100 ;
b100 F
b100 I
1!
#950
0!
b10011 "
#975
b10100 P
b10100 [
b10100 c
bz ;"
b100 '
b100 J
b100 R
b100 a
b100 g
b100 j
b100 m
b100 p
b100 s
b100 v
b100 y
b100 |
b100 !"
b100 $"
b100 '"
b100 *"
b100 -"
b100 0"
b100 3"
b100 6"
b100 i"
b100 _
0:"
1^
1""
0Y
b10000000000000000 *
b10000000000000000 4
b10000000000000000 :
b10000000000000000 C
b10000000000000000 M
b100 +
b100 5
b100 <
b100 A
b100 L
b10000 ?
b10000 B
b10 >
b10 @
1,
b1 6
b1 G
b1 H
b101 7
b101 ;
b101 F
b101 I
b100 O
b100 \
b100 ]
1!
#1000
0!
b10100 "
#1025
bx P
bx [
bx c
bz '
bz J
bz R
bz a
bz g
bz j
bz m
bz p
bz s
bz v
bz y
bz |
bz !"
bz $"
bz '"
bz *"
bz -"
bz 0"
bz 3"
bz 6"
bz i"
bz _
0^
0""
b0 *
b0 4
b0 :
b0 C
b0 M
b0 +
b0 5
b0 <
b0 A
b0 L
0,
b11010 ?
b11010 B
b11010 >
b11010 @
b10 6
b10 G
b10 H
b1 7
b1 ;
b1 F
b1 I
b110 /
b110 N
b110 e
b110 j"
b110 k"
b100 #"
b100 Q"
1!
#1050
0!
b10101 "
#1075
b10000 P
b10000 [
b10000 c
b11 6
b11 G
b11 H
b100 E
b10000000000000 V
b100 b
b10000000010000000000000 0
b10000000010000000000000 2
b10000000010000000000000 9
b10000000010000000000000 K
b10 7
b10 ;
b10 F
b10 I
b10000000010000000000000 -
b10000000010000000000000 n"
1!
#1100
0!
b10110 "
#1125
b10100 '
b10100 J
b10100 R
b10100 a
b10100 g
b10100 j
b10100 m
b10100 p
b10100 s
b10100 v
b10100 y
b10100 |
b10100 !"
b10100 $"
b10100 '"
b10100 *"
b10100 -"
b10100 0"
b10100 3"
b10100 6"
b10100 i"
b10100 ;"
1:"
1S
b1 *
b1 4
b1 :
b1 C
b1 M
b100000000000000000 +
b100000000000000000 5
b100000000000000000 <
b100000000000000000 A
b100000000000000000 L
b0 ?
b0 B
b10001 >
b10001 @
b100 6
b100 G
b100 H
b11 7
b11 ;
b11 F
b11 I
1!
#1150
0!
b10111 "
#1175
bz ;"
b100 '
b100 J
b100 R
b100 a
b100 g
b100 j
b100 m
b100 p
b100 s
b100 v
b100 y
b100 |
b100 !"
b100 $"
b100 '"
b100 *"
b100 -"
b100 0"
b100 3"
b100 6"
b100 i"
b100 S"
0:"
1R"
0S
1Y
b100 *
b100 4
b100 :
b100 C
b100 M
b10000000000000000 +
b10000000000000000 5
b10000000000000000 <
b10000000000000000 A
b10000000000000000 L
b10 ?
b10 B
b10000 >
b10000 @
b101 6
b101 G
b101 H
b100 P
b100 [
b100 c
b100 7
b100 ;
b100 F
b100 I
b10100 Q
b10100 U
b10100 `
1!
#1200
0!
b11000 "
#1225
bz S"
b100 _
0R"
1^
1h
0Y
b10000000000000000 *
b10000000000000000 4
b10000000000000000 :
b10000000000000000 C
b10000000000000000 M
b1 +
b1 5
b1 <
b1 A
b1 L
1,
b10000 ?
b10000 B
b0 >
b0 @
b1 6
b1 G
b1 H
b101 7
b101 ;
b101 F
b101 I
1!
#1250
0!
b11001 "
#1275
b10100 P
b10100 [
b10100 c
bz '
bz J
bz R
bz a
bz g
bz j
bz m
bz p
bz s
bz v
bz y
bz |
bz !"
bz $"
bz '"
bz *"
bz -"
bz 0"
bz 3"
bz 6"
bz i"
bz _
0^
0h
b0 *
b0 4
b0 :
b0 C
b0 M
b0 +
b0 5
b0 <
b0 A
b0 L
b11010 ?
b11010 B
b11010 >
b11010 @
0,
b10 6
b10 G
b10 H
b1 7
b1 ;
b1 F
b1 I
b100 i
b100 9"
b111 /
b111 N
b111 e
b111 j"
b111 k"
1!
#1300
0!
b11010 "
#1325
b1000 6
b1000 G
b1000 H
b101 E
b0 V
b101 b
b10101010000000000000000 0
b10101010000000000000000 2
b10101010000000000000000 9
b10101010000000000000000 K
b10 7
b10 ;
b10 F
b10 I
b10101010000000000000000 -
b10101010000000000000000 n"
1!
#1350
0!
b11011 "
#1375
b111 '
b111 J
b111 R
b111 a
b111 g
b111 j
b111 m
b111 p
b111 s
b111 v
b111 y
b111 |
b111 !"
b111 $"
b111 '"
b111 *"
b111 -"
b111 0"
b111 3"
b111 6"
b111 i"
b111 f
1d
1+"
b1000000000000000000 *
b1000000000000000000 4
b1000000000000000000 :
b1000000000000000000 C
b1000000000000000000 M
b100000 +
b100000 5
b100000 <
b100000 A
b100000 L
b10010 ?
b10010 B
b101 >
b101 @
1,
b1 6
b1 G
b1 H
b1000 7
b1000 ;
b1000 F
b1000 I
1!
#1400
0!
b11100 "
#1425
bz '
bz J
bz R
bz a
bz g
bz j
bz m
bz p
bz s
bz v
bz y
bz |
bz !"
bz $"
bz '"
bz *"
bz -"
bz 0"
bz 3"
bz 6"
bz i"
bz f
0d
0+"
b0 *
b0 4
b0 :
b0 C
b0 M
b0 +
b0 5
b0 <
b0 A
b0 L
0,
b11010 ?
b11010 B
b11010 >
b11010 @
b10 6
b10 G
b10 H
b1 7
b1 ;
b1 F
b1 I
b1000 /
b1000 N
b1000 e
b1000 j"
b1000 k"
b111 ,"
b111 Z"
1!
#1450
0!
b11101 "
#1475
bx P
bx [
bx c
b11 6
b11 G
b11 H
b10 E
b1000000000000 V
b10 b
b1000000001000000000000 0
b1000000001000000000000 2
b1000000001000000000000 9
b1000000001000000000000 K
b10 7
b10 ;
b10 F
b10 I
b1000000001000000000000 -
b1000000001000000000000 n"
1!
#1500
0!
b11110 "
#1525
b11000 P
b11000 [
b11000 c
b100 '
b100 J
b100 R
b100 a
b100 g
b100 j
b100 m
b100 p
b100 s
b100 v
b100 y
b100 |
b100 !"
b100 $"
b100 '"
b100 *"
b100 -"
b100 0"
b100 3"
b100 6"
b100 i"
b100 ;"
1:"
1S
b1 *
b1 4
b1 :
b1 C
b1 M
b100000000000000000 +
b100000000000000000 5
b100000000000000000 <
b100000000000000000 A
b100000000000000000 L
b0 ?
b0 B
b10001 >
b10001 @
b100 6
b100 G
b100 H
b11 7
b11 ;
b11 F
b11 I
1!
#1550
0!
b11111 "
#1575
bz ;"
b100 >"
0:"
1="
0S
1Y
b10 *
b10 4
b10 :
b10 C
b10 M
b10000000000000000 +
b10000000000000000 5
b10000000000000000 <
b10000000000000000 A
b10000000000000000 L
b1 ?
b1 B
b10000 >
b10000 @
b101 6
b101 G
b101 H
b1000 P
b1000 [
b1000 c
b100 7
b100 ;
b100 F
b100 I
b100 Q
b100 U
b100 `
1!
#1600
0!
b100000 "
#1625
b1100 P
b1100 [
b1100 c
bz >"
b1000 '
b1000 J
b1000 R
b1000 a
b1000 g
b1000 j
b1000 m
b1000 p
b1000 s
b1000 v
b1000 y
b1000 |
b1000 !"
b1000 $"
b1000 '"
b1000 *"
b1000 -"
b1000 0"
b1000 3"
b1000 6"
b1000 i"
b1000 _
0="
1^
1h
0Y
b10000000000000000 *
b10000000000000000 4
b10000000000000000 :
b10000000000000000 C
b10000000000000000 M
b1 +
b1 5
b1 <
b1 A
b1 L
1,
b10000 ?
b10000 B
b0 >
b0 @
b1 6
b1 G
b1 H
b101 7
b101 ;
b101 F
b101 I
b1000 O
b1000 \
b1000 ]
1!
#1650
0!
b100001 "
#1675
bx P
bx [
bx c
bz '
bz J
bz R
bz a
bz g
bz j
bz m
bz p
bz s
bz v
bz y
bz |
bz !"
bz $"
bz '"
bz *"
bz -"
bz 0"
bz 3"
bz 6"
bz i"
bz _
0^
0h
b0 *
b0 4
b0 :
b0 C
b0 M
b0 +
b0 5
b0 <
b0 A
b0 L
b11010 ?
b11010 B
b11010 >
b11010 @
0,
b10 6
b10 G
b10 H
b1 7
b1 ;
b1 F
b1 I
b1000 i
b1000 9"
b1001 /
b1001 N
b1001 e
b1001 j"
b1001 k"
1!
#1700
0!
b100010 "
#1725
b11 6
b11 G
b11 H
b0 V
b1000100000000000000000 0
b1000100000000000000000 2
b1000100000000000000000 9
b1000100000000000000000 K
b10 7
b10 ;
b10 F
b10 I
b1000100000000000000000 -
b1000100000000000000000 n"
1!
#1750
0!
b100011 "
#1775
b1000 P
b1000 [
b1000 c
b100 '
b100 J
b100 R
b100 a
b100 g
b100 j
b100 m
b100 p
b100 s
b100 v
b100 y
b100 |
b100 !"
b100 $"
b100 '"
b100 *"
b100 -"
b100 0"
b100 3"
b100 6"
b100 i"
b100 S"
1R"
1S
b100 *
b100 4
b100 :
b100 C
b100 M
b100000000000000000 +
b100000000000000000 5
b100000000000000000 <
b100000000000000000 A
b100000000000000000 L
b10 ?
b10 B
b10001 >
b10001 @
b100 6
b100 G
b100 H
b11 7
b11 ;
b11 F
b11 I
1!
#1800
0!
b100100 "
